{
  "version": "011",
  "name": "useless_table",
  "fields":{
    "1" :{
      "name" : "id",
      "type" : "int",
      "property" : "AUTO_INCREMENT NOT NULL PRIMARY KEY"
    },
    "2" : {
      "name" :"name",
      "type" : "varchar(255)",
      "property" : ""
    },
    "3" : {
      "name" : "value",
      "type" : "varchar(255)",
      "property" : ""
    },
    "update-value" : {
      "name" : "value",
      "type" : "varchar(254)",
      "property" : "",
      "action" : "edit"
    }
  }
}